{
	"info": {
		"_postman_id": "f6afdd72-a9d3-4ad6-9e0d-5b83a97ee99d",
		"name": "hts-challenge",
		"schema": "https://schema.getpostman.com/json/collection/v2.1.0/collection.json",
		"_exporter_id": "20228534"
	},
	"item": [
		{
			"name": "/register",
			"request": {
				"method": "POST",
				"header": [],
				"body": {
					"mode": "raw",
					"raw": "{\r\n    \"first_name\": \"Sahil\",\r\n    \"last_name\": \"Jain\",\r\n    \"email\": \"developers.sahiljain@gmail.com\",\r\n    \"password\": \"QWE@werat\"\r\n}",
					"options": {
						"raw": {
							"language": "json"
						}
					}
				},
				"url": {
					"raw": "http://localhost:3000/user/register",
					"protocol": "http",
					"host": [
						"localhost"
					],
					"port": "3000",
					"path": [
						"user",
						"register"
					]
				}
			},
			"response": [
				{
					"name": "/register - 409",
					"originalRequest": {
						"method": "POST",
						"header": [],
						"body": {
							"mode": "raw",
							"raw": "{\r\n    \"first_name\": \"Sahil\",\r\n    \"last_name\": \"Jain\",\r\n    \"email\": \"developer.sahiljain@gmail.com\",\r\n    \"password\": \"QWE@wert\"\r\n}",
							"options": {
								"raw": {
									"language": "json"
								}
							}
						},
						"url": {
							"raw": "http://localhost:3000/user/register",
							"protocol": "http",
							"host": [
								"localhost"
							],
							"port": "3000",
							"path": [
								"user",
								"register"
							]
						}
					},
					"status": "Conflict",
					"code": 409,
					"_postman_previewlanguage": "json",
					"header": [
						{
							"key": "X-Powered-By",
							"value": "Express"
						},
						{
							"key": "Content-Type",
							"value": "application/json; charset=utf-8"
						},
						{
							"key": "Content-Length",
							"value": "33"
						},
						{
							"key": "ETag",
							"value": "W/\"21-iGErLku/9taeeOQN+9qwFgLXnuo\""
						},
						{
							"key": "Date",
							"value": "Sun, 02 Jun 2024 09:41:32 GMT"
						},
						{
							"key": "Connection",
							"value": "keep-alive"
						},
						{
							"key": "Keep-Alive",
							"value": "timeout=5"
						}
					],
					"cookie": [],
					"body": "{\n    \"message\": \"User already exists\"\n}"
				},
				{
					"name": "/register - 400",
					"originalRequest": {
						"method": "POST",
						"header": [],
						"body": {
							"mode": "raw",
							"raw": "{\r\n    \"first_name\": \"Sahil\",\r\n    \"last_name\": \"Jain\",\r\n    \"email\": \"developer.sahiljain@gmail.com\"\r\n}",
							"options": {
								"raw": {
									"language": "json"
								}
							}
						},
						"url": {
							"raw": "http://localhost:3000/user/register",
							"protocol": "http",
							"host": [
								"localhost"
							],
							"port": "3000",
							"path": [
								"user",
								"register"
							]
						}
					},
					"status": "Bad Request",
					"code": 400,
					"_postman_previewlanguage": "json",
					"header": [
						{
							"key": "X-Powered-By",
							"value": "Express"
						},
						{
							"key": "Content-Type",
							"value": "application/json; charset=utf-8"
						},
						{
							"key": "Content-Length",
							"value": "37"
						},
						{
							"key": "ETag",
							"value": "W/\"25-f/icTtMnVNJicVy/z/NFU3YsKDM\""
						},
						{
							"key": "Date",
							"value": "Sun, 02 Jun 2024 09:42:29 GMT"
						},
						{
							"key": "Connection",
							"value": "keep-alive"
						},
						{
							"key": "Keep-Alive",
							"value": "timeout=5"
						}
					],
					"cookie": [],
					"body": "{\n    \"message\": \"All fields are required\"\n}"
				},
				{
					"name": "/register - 200",
					"originalRequest": {
						"method": "POST",
						"header": [],
						"body": {
							"mode": "raw",
							"raw": "{\r\n    \"first_name\": \"Sahil\",\r\n    \"last_name\": \"Jain\",\r\n    \"email\": \"developers.sahiljain@gmail.com\",\r\n    \"password\": \"QWE@werat\"\r\n}",
							"options": {
								"raw": {
									"language": "json"
								}
							}
						},
						"url": {
							"raw": "http://localhost:3000/user/register",
							"protocol": "http",
							"host": [
								"localhost"
							],
							"port": "3000",
							"path": [
								"user",
								"register"
							]
						}
					},
					"status": "OK",
					"code": 200,
					"_postman_previewlanguage": "json",
					"header": [
						{
							"key": "X-Powered-By",
							"value": "Express"
						},
						{
							"key": "Content-Type",
							"value": "application/json; charset=utf-8"
						},
						{
							"key": "Content-Length",
							"value": "54"
						},
						{
							"key": "ETag",
							"value": "W/\"36-Gw1dNzL0Ey8iLztmxuGlEcUqjxI\""
						},
						{
							"key": "Date",
							"value": "Sun, 02 Jun 2024 09:50:20 GMT"
						},
						{
							"key": "Connection",
							"value": "keep-alive"
						},
						{
							"key": "Keep-Alive",
							"value": "timeout=5"
						}
					],
					"cookie": [],
					"body": "{\n    \"message\": \"User created successfully\",\n    \"success\": true\n}"
				}
			]
		},
		{
			"name": "/login",
			"request": {
				"method": "POST",
				"header": [],
				"body": {
					"mode": "raw",
					"raw": "{\r\n    \"email\": \"developers.sahiljain@gmail.com\",\r\n    \"password\": \"QWE@werat\"\r\n\r\n}",
					"options": {
						"raw": {
							"language": "json"
						}
					}
				},
				"url": {
					"raw": "http://localhost:3000/user/login",
					"protocol": "http",
					"host": [
						"localhost"
					],
					"port": "3000",
					"path": [
						"user",
						"login"
					]
				}
			},
			"response": [
				{
					"name": "/login - 401",
					"originalRequest": {
						"method": "POST",
						"header": [],
						"body": {
							"mode": "raw",
							"raw": "{\r\n    \"email\": \"developer.sahiljain@gmail.com\",\r\n    \"password\": \"QWE@wert\"\r\n}",
							"options": {
								"raw": {
									"language": "json"
								}
							}
						},
						"url": {
							"raw": "http://localhost:3000/user/login",
							"protocol": "http",
							"host": [
								"localhost"
							],
							"port": "3000",
							"path": [
								"user",
								"login"
							]
						}
					},
					"status": "Unauthorized",
					"code": 401,
					"_postman_previewlanguage": "json",
					"header": [
						{
							"key": "X-Powered-By",
							"value": "Express"
						},
						{
							"key": "Content-Type",
							"value": "application/json; charset=utf-8"
						},
						{
							"key": "Content-Length",
							"value": "49"
						},
						{
							"key": "ETag",
							"value": "W/\"31-4h50AnezrPSbk63u+A/I0/uvj18\""
						},
						{
							"key": "Date",
							"value": "Sun, 02 Jun 2024 09:51:45 GMT"
						},
						{
							"key": "Connection",
							"value": "keep-alive"
						},
						{
							"key": "Keep-Alive",
							"value": "timeout=5"
						}
					],
					"cookie": [],
					"body": "{\n    \"message\": \"User does not exist\",\n    \"success\": false\n}"
				},
				{
					"name": "/login - 200",
					"originalRequest": {
						"method": "POST",
						"header": [],
						"body": {
							"mode": "raw",
							"raw": "{\r\n    \"email\": \"developers.sahiljain@gmail.com\",\r\n    \"password\": \"QWE@werat\"\r\n}",
							"options": {
								"raw": {
									"language": "json"
								}
							}
						},
						"url": {
							"raw": "http://localhost:3000/user/login",
							"protocol": "http",
							"host": [
								"localhost"
							],
							"port": "3000",
							"path": [
								"user",
								"login"
							]
						}
					},
					"status": "OK",
					"code": 200,
					"_postman_previewlanguage": "json",
					"header": [
						{
							"key": "X-Powered-By",
							"value": "Express"
						},
						{
							"key": "Content-Type",
							"value": "application/json; charset=utf-8"
						},
						{
							"key": "Content-Length",
							"value": "47"
						},
						{
							"key": "ETag",
							"value": "W/\"2f-btmDCGShqeQVoaQy9cb3ynC8Vq8\""
						},
						{
							"key": "Date",
							"value": "Sun, 02 Jun 2024 09:52:21 GMT"
						},
						{
							"key": "Connection",
							"value": "keep-alive"
						},
						{
							"key": "Keep-Alive",
							"value": "timeout=5"
						}
					],
					"cookie": [],
					"body": "{\n    \"message\": \"Sign-in successful\",\n    \"success\": true\n}"
				}
			]
		}
	]
}